{
  "formatVersion": 1,
  "database": {
    "version": 3,
    "identityHash": "a81edd6fa42ef21dbd394ca99cf189cc",
    "entities": [
      {
        "tableName": "todo",
        "createSql": "CREATE TABLE IF NOT EXISTS `${TABLE_NAME}` (`rowId` INTEGER PRIMARY KEY AUTOINCREMENT, `subject` TEXT NOT NULL, `body` TEXT, `completed` INTEGER DEFAULT 0, `date` TEXT)",
        "fields": [
          {
            "fieldPath": "id",
            "columnName": "rowId",
            "affinity": "INTEGER",
            "notNull": false
          },
          {
            "fieldPath": "subject",
            "columnName": "subject",
            "affinity": "TEXT",
            "notNull": true
          },
          {
            "fieldPath": "description",
            "columnName": "body",
            "affinity": "TEXT",
            "notNull": false
          },
          {
            "fieldPath": "is_complete",
            "columnName": "completed",
            "affinity": "INTEGER",
            "notNull": false,
            "defaultValue": "0"
          },
          {
            "fieldPath": "date",
            "columnName": "date",
            "affinity": "TEXT",
            "notNull": false
          }
        ],
        "primaryKey": {
          "columnNames": [
            "rowId"
          ],
          "autoGenerate": true
        },
        "indices": [],
        "foreignKeys": []
      }
    ],
    "views": [],
    "setupQueries": [
      "CREATE TABLE IF NOT EXISTS room_master_table (id INTEGER PRIMARY KEY,identity_hash TEXT)",
      "INSERT OR REPLACE INTO room_master_table (id,identity_hash) VALUES(42, 'a81edd6fa42ef21dbd394ca99cf189cc')"
    ]
  }
}